\relax 
\catcode`"\active
\catcode`<\active
\catcode`>\active
\@nameuse{es@quoting}
\@input{hw_1_article_review_fp.aux}
\select@language{spanish}
\@writefile{toc}{\select@language{spanish}}
\@writefile{lof}{\select@language{spanish}}
\@writefile{lot}{\select@language{spanish}}
\@writefile{toc}{\contentsline {section}{\numberline {1}Resumen}{2}}
\citation{pa}
\@writefile{toc}{\contentsline {section}{\numberline {2}Conclusiones}{3}}
\bibcite{pa}{1}
\@writefile{toc}{\contentsline {section}{\numberline {3}Glosario}{4}}
