\relax 
\catcode`"\active
\catcode`<\active
\catcode`>\active
\@nameuse{es@quoting}
\ifx\hyper@anchor\@undefined
\global \let \oldcontentsline\contentsline
\gdef \contentsline#1#2#3#4{\oldcontentsline{#1}{#2}{#3}}
\global \let \oldnewlabel\newlabel
\gdef \newlabel#1#2{\newlabelxx{#1}#2}
\gdef \newlabelxx#1#2#3#4#5#6{\oldnewlabel{#1}{{#2}{#3}}}
\AtEndDocument{\let \contentsline\oldcontentsline
\let \newlabel\oldnewlabel}
\else
\global \let \hyper@last\relax 
\fi

\citation{sphinx0}
\select@language{spanish}
\@writefile{toc}{\select@language{spanish}}
\@writefile{lof}{\select@language{spanish}}
\@writefile{lot}{\select@language{spanish}}
\@writefile{toc}{\contentsline {section}{\numberline {1}Introducci\'on}{\thepage }{section.1}}
\@writefile{toc}{\contentsline {section}{\numberline {2}Caracter\'isticas}{\thepage }{section.2}}
\@writefile{lof}{\contentsline {figure}{\numberline {1}{\ignorespaces Proceso de generaci\'on de contenidos}}{\thepage }{figure.1}}
\citation{sphinx2}
\@writefile{toc}{\contentsline {section}{\numberline {3}Instalaci\'on y configuraci\'on}{\thepage }{section.3}}
\@writefile{toc}{\contentsline {subsection}{\numberline {3.1}Debian Linux}{\thepage }{subsection.3.1}}
\@writefile{toc}{\contentsline {subsection}{\numberline {3.2}Windows}{\thepage }{subsection.3.2}}
\@writefile{toc}{\contentsline {subsection}{\numberline {3.3}Configuraci\'on de un proyecto}{\thepage }{subsection.3.3}}
\@writefile{lof}{\contentsline {figure}{\numberline {2}{\ignorespaces Contenido generado en HTML}}{\thepage }{figure.2}}
\@writefile{toc}{\contentsline {section}{\numberline {4}Proyecto de documentaci\'on}{\thepage }{section.4}}
\@writefile{lof}{\contentsline {figure}{\numberline {3}{\ignorespaces Estructura de directorios \emph  {Sphinx-doc}}}{\thepage }{figure.3}}
\@writefile{toc}{\contentsline {subsection}{\numberline {4.1}Comandos Make}{\thepage }{subsection.4.1}}
\@writefile{toc}{\contentsline {section}{\numberline {5}Extensiones}{\thepage }{section.5}}
\@writefile{toc}{\contentsline {section}{\numberline {6}An\'alisis}{\thepage }{section.6}}
\@writefile{toc}{\contentsline {subsection}{\numberline {6.1}Ventajas}{\thepage }{subsection.6.1}}
\bibstyle{abbrv}
\bibcite{sphinx0}{1}
\bibcite{sphinx1}{2}
\bibcite{sphinx3}{3}
\@writefile{toc}{\contentsline {subsection}{\numberline {6.2}Desventajas}{\thepage }{subsection.6.2}}
\@writefile{toc}{\contentsline {section}{\numberline {7}Conclusiones}{\thepage }{section.7}}
\@writefile{toc}{\contentsline {section}{\numberline {8}References}{\thepage }{section.8}}
