﻿
[SystemSettings]
Version=11.1
Description=

[ProjectProfile]
AccexIni=extend\accex.ini
AttributesIni=extend\attributes.ini
JavaexIni=extend\javaex.ini
DomexIni=extend\domex.ini
AxextIni=extend\axext.ini
ProjectIni=WebTestCase.ini
EndFolder=TRUE
[ProjectFrame]
Source=frame.inc
Source=frame2.inc
EndFolder=TRUE
[ProjectScript]
Source=testcase1.t
Source=testcase2.t
Source=testcase3.t
EndFolder=TRUE

[ProjectPlan]
EndFolder=TRUE

[ProjectResults]
EndFolder=TRUE

[ProjectData]
EndFolder=TRUE

[GlobalTVSettings]
ShowFullPath=FALSE
ShowDateTime=FALSE
