\relax 
\catcode`"\active
\catcode`<\active
\catcode`>\active
\@nameuse{es@quoting}
\ifx\hyper@anchor\@undefined
\global \let \oldcontentsline\contentsline
\gdef \contentsline#1#2#3#4{\oldcontentsline{#1}{#2}{#3}}
\global \let \oldnewlabel\newlabel
\gdef \newlabel#1#2{\newlabelxx{#1}#2}
\gdef \newlabelxx#1#2#3#4#5#6{\oldnewlabel{#1}{{#2}{#3}}}
\AtEndDocument{\let \contentsline\oldcontentsline
\let \newlabel\oldnewlabel}
\else
\global \let \hyper@last\relax 
\fi

\citation{SvnWiki}
\select@language{spanish}
\@writefile{toc}{\select@language{spanish}}
\@writefile{lof}{\select@language{spanish}}
\@writefile{lot}{\select@language{spanish}}
\@writefile{toc}{\contentsline {section}{\numberline {1}Introducci\'on}{\thepage }{section.1}}
\@writefile{toc}{\contentsline {section}{\numberline {2}Caracter\'isticas}{\thepage }{section.2}}
\@writefile{lof}{\contentsline {figure}{\numberline {1}{\ignorespaces Esquema general, Subversion }}{\thepage }{figure.1}}
\@writefile{toc}{\contentsline {subsection}{\numberline {2.1}Estructura de directorios}{\thepage }{subsection.2.1}}
\@writefile{toc}{\contentsline {subsection}{\numberline {2.2}Branching y merging}{\thepage }{subsection.2.2}}
\@writefile{lof}{\contentsline {figure}{\numberline {2}{\ignorespaces Flujo de ejemplo, branching-merging}}{\thepage }{figure.2}}
\@writefile{toc}{\contentsline {subsection}{\numberline {2.3}Herramientas}{\thepage }{subsection.2.3}}
\@writefile{toc}{\contentsline {subsection}{\numberline {2.4}Ventajas y desventajas}{\thepage }{subsection.2.4}}
\citation{SvnInstall}
\citation{SvnInstall2}
\citation{SvnInstall3}
\@writefile{toc}{\contentsline {section}{\numberline {3}Instalaci\'on y configuraci\'on}{\thepage }{section.3}}
\@writefile{lof}{\contentsline {figure}{\numberline {3}{\ignorespaces Instrucciones de instalaci\'on}}{\thepage }{figure.3}}
\@writefile{lof}{\contentsline {figure}{\numberline {4}{\ignorespaces Configuraci\'on de svnserver}}{\thepage }{figure.4}}
\@writefile{lof}{\contentsline {figure}{\numberline {5}{\ignorespaces Configuraci\'on dav\_svn.passwd}}{\thepage }{figure.5}}
\bibstyle{abbrv}
\bibcite{SvnRedBook}{1}
\bibcite{SvnWiki}{2}
\bibcite{SvnInstall}{3}
\bibcite{SvnInstall2}{4}
\bibcite{SvnInstall3}{5}
\@writefile{lof}{\contentsline {figure}{\numberline {6}{\ignorespaces SVN configurado con HTTPS }}{\thepage }{figure.6}}
\@writefile{lof}{\contentsline {figure}{\numberline {7}{\ignorespaces Instrucciones de instalaci\'on}}{\thepage }{figure.7}}
\@writefile{toc}{\contentsline {subsection}{\numberline {3.1}Seguridad}{\thepage }{subsection.3.1}}
\@writefile{lof}{\contentsline {figure}{\numberline {8}{\ignorespaces Seguridad de acceso}}{\thepage }{figure.8}}
\@writefile{toc}{\contentsline {section}{\numberline {4}Conclusiones}{\thepage }{section.4}}
\@writefile{toc}{\contentsline {section}{\numberline {5}References}{\thepage }{section.5}}
