\relax 
\citation{SvnWiki}
\@writefile{toc}{\contentsline {section}{\numberline {1}Introducci\'on}{\thepage }{section.1}}
\@writefile{toc}{\contentsline {section}{\numberline {2}Caracter\'isticas}{\thepage }{section.2}}
\@writefile{lof}{\contentsline {figure}{\numberline {1}{\ignorespaces Esquema general, Subversion }}{\thepage }{figure.1}}
\citation{SvnInstall}
\citation{SvnInstall2}
\citation{SvnInstall3}
\@writefile{lof}{\contentsline {figure}{\numberline {2}{\ignorespaces Flujo de ejemplo, branching-merging}}{\thepage }{figure.2}}
\@writefile{toc}{\contentsline {section}{\numberline {3}Instalaci\'on y configuraci\'on}{\thepage }{section.3}}
\@writefile{lol}{\contentsline {lstlisting}{\numberline {1}Instrucciones de instalaci\'on}{\thepage }{lstlisting.1}}
\@writefile{lol}{\contentsline {lstlisting}{\numberline {2}/etc/apache2/sites-available/svnserver}{\thepage }{lstlisting.2}}
\@writefile{lol}{\contentsline {lstlisting}{\numberline {3}/etc/apache2/mods-available/dav\_svn.conf}{\thepage }{lstlisting.3}}
\@writefile{lol}{\contentsline {lstlisting}{\numberline {4}Instrucciones de instalaci\'on}{\thepage }{lstlisting.4}}
\@writefile{lof}{\contentsline {figure}{\numberline {3}{\ignorespaces SVN configurado con HTTPS }}{\thepage }{figure.3}}
\@writefile{lol}{\contentsline {lstlisting}{\numberline {5}Seguridad de acceso}{\thepage }{lstlisting.5}}
\@writefile{toc}{\contentsline {section}{\numberline {4}Conclusiones}{\thepage }{section.4}}
\@setckpt{chap1}{
\setcounter{page}{5}
\setcounter{equation}{0}
\setcounter{enumi}{6}
\setcounter{enumii}{0}
\setcounter{enumiii}{0}
\setcounter{enumiv}{0}
\setcounter{footnote}{0}
\setcounter{mpfootnote}{0}
\setcounter{parentequation}{0}
\setcounter{figure}{3}
\setcounter{table}{0}
\setcounter{part}{0}
\setcounter{section}{4}
\setcounter{subsection}{0}
\setcounter{subsubsection}{0}
\setcounter{paragraph}{0}
\setcounter{Item}{6}
\setcounter{Hfootnote}{0}
\setcounter{lstnumber}{9}
\setcounter{section@level}{1}
\setcounter{lstlisting}{5}
}
