\relax 
\ifx\hyper@anchor\@undefined
\global \let \oldcontentsline\contentsline
\gdef \contentsline#1#2#3#4{\oldcontentsline{#1}{#2}{#3}}
\global \let \oldnewlabel\newlabel
\gdef \newlabel#1#2{\newlabelxx{#1}#2}
\gdef \newlabelxx#1#2#3#4#5#6{\oldnewlabel{#1}{{#2}{#3}}}
\AtEndDocument{\let \contentsline\oldcontentsline
\let \newlabel\oldnewlabel}
\else
\global \let \hyper@last\relax 
\fi

\select@language{english}
\@writefile{toc}{\select@language{english}}
\@writefile{lof}{\select@language{english}}
\@writefile{lot}{\select@language{english}}
\newlabel{index::doc}{{}{1}{\relax }{section*.2}{}}
\@writefile{toc}{\contentsline {chapter}{\numberline {1}Titulo}{3}{chapter.1}}
\@writefile{lof}{\addvspace {10\p@ }}
\@writefile{lot}{\addvspace {10\p@ }}
\newlabel{page1:welcome-to-docproject1-s-documentation}{{1}{3}{Titulo\relax }{chapter.1}{}}
\newlabel{page1:titulo}{{1}{3}{Titulo\relax }{chapter.1}{}}
\newlabel{page1::doc}{{1}{3}{Titulo\relax }{chapter.1}{}}
\@writefile{toc}{\contentsline {section}{\numberline {1.1}Subtitulo}{3}{section.1.1}}
\newlabel{page1:subtitulo}{{1.1}{3}{Subtitulo\relax }{section.1.1}{}}
\@writefile{toc}{\contentsline {section}{\numberline {1.2}Listas}{3}{section.1.2}}
\newlabel{page1:listas}{{1.2}{3}{Listas\relax }{section.1.2}{}}
\@writefile{toc}{\contentsline {section}{\numberline {1.3}Listas 2}{3}{section.1.3}}
\newlabel{page1:listas-2}{{1.3}{3}{Listas 2\relax }{section.1.3}{}}
\@writefile{toc}{\contentsline {section}{\numberline {1.4}Tablas}{3}{section.1.4}}
\newlabel{page1:tablas}{{1.4}{3}{Tablas\relax }{section.1.4}{}}
\@writefile{toc}{\contentsline {section}{\numberline {1.5}Enlaces}{4}{section.1.5}}
\newlabel{page1:enlaces}{{1.5}{4}{Enlaces\relax }{section.1.5}{}}
\@writefile{toc}{\contentsline {chapter}{\numberline {2}Titulo 2}{5}{chapter.2}}
\@writefile{lof}{\addvspace {10\p@ }}
\@writefile{lot}{\addvspace {10\p@ }}
\newlabel{page2:page2}{{2}{5}{Titulo 2\relax }{chapter.2}{}}
\newlabel{page2:titulo-2}{{2}{5}{Titulo 2\relax }{chapter.2}{}}
\newlabel{page2::doc}{{2}{5}{Titulo 2\relax }{chapter.2}{}}
\@writefile{toc}{\contentsline {chapter}{\numberline {3}Restructured Text (reST) and Sphinx CheatSheet}{7}{chapter.3}}
\@writefile{lof}{\addvspace {10\p@ }}
\@writefile{lot}{\addvspace {10\p@ }}
\newlabel{rest_syntax::doc}{{3}{7}{Restructured Text (reST) and Sphinx CheatSheet\relax }{chapter.3}{}}
\newlabel{rest_syntax:rst-tutorial}{{3}{7}{Restructured Text (reST) and Sphinx CheatSheet\relax }{chapter.3}{}}
\newlabel{rest_syntax:restructured-text-rest-and-sphinx-cheatsheet}{{3}{7}{Restructured Text (reST) and Sphinx CheatSheet\relax }{chapter.3}{}}
\@writefile{toc}{\contentsline {section}{\numberline {3.1}Introduction}{8}{section.3.1}}
\newlabel{rest_syntax:introduction}{{3.1}{8}{Introduction\relax }{section.3.1}{}}
\@writefile{toc}{\contentsline {section}{\numberline {3.2}Inline markup and special characters (e.g., bold, italic, verbatim)}{8}{section.3.2}}
\newlabel{rest_syntax:inline-markup-and-special-characters-e-g-bold-italic-verbatim}{{3.2}{8}{Inline markup and special characters (e.g., bold, italic, verbatim)\relax }{section.3.2}{}}
\@writefile{toc}{\contentsline {section}{\numberline {3.3}Headings}{9}{section.3.3}}
\newlabel{rest_syntax:headings}{{3.3}{9}{Headings\relax }{section.3.3}{}}
\@writefile{toc}{\contentsline {section}{\numberline {3.4}Internal and External Links}{10}{section.3.4}}
\newlabel{rest_syntax:internal-and-external-links}{{3.4}{10}{Internal and External Links\relax }{section.3.4}{}}
\@writefile{toc}{\contentsline {subsection}{\numberline {3.4.1}External links}{10}{subsection.3.4.1}}
\newlabel{rest_syntax:external-links}{{3.4.1}{10}{External links\relax }{subsection.3.4.1}{}}
\@writefile{toc}{\contentsline {subsection}{\numberline {3.4.2}Implicit Links to Titles}{10}{subsection.3.4.2}}
\newlabel{rest_syntax:implicit}{{3.4.2}{10}{Implicit Links to Titles\relax }{subsection.3.4.2}{}}
\newlabel{rest_syntax:implicit-links-to-titles}{{3.4.2}{10}{Implicit Links to Titles\relax }{subsection.3.4.2}{}}
\@writefile{toc}{\contentsline {subsection}{\numberline {3.4.3}Explicit Links}{10}{subsection.3.4.3}}
\newlabel{rest_syntax:explicit-links}{{3.4.3}{10}{Explicit Links\relax }{subsection.3.4.3}{}}
\@writefile{toc}{\contentsline {section}{\numberline {3.5}List and bullets}{11}{section.3.5}}
\newlabel{rest_syntax:list-and-bullets}{{3.5}{11}{List and bullets\relax }{section.3.5}{}}
\@writefile{toc}{\contentsline {section}{\numberline {3.6}Comments}{11}{section.3.6}}
\newlabel{rest_syntax:comments}{{3.6}{11}{Comments\relax }{section.3.6}{}}
\@writefile{toc}{\contentsline {section}{\numberline {3.7}Directives}{11}{section.3.7}}
\newlabel{rest_syntax:directives}{{3.7}{11}{Directives\relax }{section.3.7}{}}
\@writefile{toc}{\contentsline {section}{\numberline {3.8}Tables}{11}{section.3.8}}
\newlabel{rest_syntax:tables}{{3.8}{11}{Tables\relax }{section.3.8}{}}
\@writefile{toc}{\contentsline {subsection}{\numberline {3.8.1}Simple tables}{12}{subsection.3.8.1}}
\newlabel{rest_syntax:simple-tables}{{3.8.1}{12}{Simple tables\relax }{subsection.3.8.1}{}}
\@writefile{toc}{\contentsline {subsection}{\numberline {3.8.2}Multicells tables, first method}{12}{subsection.3.8.2}}
\newlabel{rest_syntax:multicells-tables-first-method}{{3.8.2}{12}{Multicells tables, first method\relax }{subsection.3.8.2}{}}
\@writefile{toc}{\contentsline {subsection}{\numberline {3.8.3}Multicells table, second method}{12}{subsection.3.8.3}}
\newlabel{rest_syntax:multicells-table-second-method}{{3.8.3}{12}{Multicells table, second method\relax }{subsection.3.8.3}{}}
\@writefile{toc}{\contentsline {subsection}{\numberline {3.8.4}The tabularcolumns directive}{13}{subsection.3.8.4}}
\newlabel{rest_syntax:the-tabularcolumns-directive}{{3.8.4}{13}{The tabularcolumns directive\relax }{subsection.3.8.4}{}}
\@writefile{toc}{\contentsline {subsection}{\numberline {3.8.5}The csv-table directive}{13}{subsection.3.8.5}}
\newlabel{rest_syntax:the-csv-table-directive}{{3.8.5}{13}{The csv-table directive\relax }{subsection.3.8.5}{}}
\@writefile{lot}{\contentsline {table}{\numberline {3.1}{\ignorespaces a title}}{13}{table.3.1}}
\@writefile{toc}{\contentsline {section}{\numberline {3.9}Include other RST files with the toctree directive}{13}{section.3.9}}
\newlabel{rest_syntax:include-other-rst-files-with-the-toctree-directive}{{3.9}{13}{Include other RST files with the toctree directive\relax }{section.3.9}{}}
\@writefile{toc}{\contentsline {section}{\numberline {3.10}Substitutions}{14}{section.3.10}}
\newlabel{rest_syntax:substitutions}{{3.10}{14}{Substitutions\relax }{section.3.10}{}}
\@writefile{toc}{\contentsline {section}{\numberline {3.11}Colored boxes: note, seealso, todo and warnings}{14}{section.3.11}}
\newlabel{rest_syntax:colored-boxes-note-seealso-todo-and-warnings}{{3.11}{14}{Colored boxes: note, seealso, todo and warnings\relax }{section.3.11}{}}
\@writefile{toc}{\contentsline {section}{\numberline {3.12}Inserting code and Literal blocks}{15}{section.3.12}}
\newlabel{rest_syntax:inserting-code-and-literal-blocks}{{3.12}{15}{Inserting code and Literal blocks\relax }{section.3.12}{}}
\@writefile{toc}{\contentsline {subsection}{\numberline {3.12.1}How to include simple code}{15}{subsection.3.12.1}}
\newlabel{rest_syntax:how-to-include-simple-code}{{3.12.1}{15}{How to include simple code\relax }{subsection.3.12.1}{}}
\@writefile{toc}{\contentsline {subsection}{\numberline {3.12.2}code-block}{15}{subsection.3.12.2}}
\newlabel{rest_syntax:code-block}{{3.12.2}{15}{code-block\relax }{subsection.3.12.2}{}}
\@writefile{toc}{\contentsline {subsection}{\numberline {3.12.3}Include code with the literalinclude directive}{16}{subsection.3.12.3}}
\newlabel{rest_syntax:include-code-with-the-literalinclude-directive}{{3.12.3}{16}{Include code with the literalinclude directive\relax }{subsection.3.12.3}{}}
\@writefile{toc}{\contentsline {section}{\numberline {3.13}Maths and Equations with LaTeX}{16}{section.3.13}}
\newlabel{rest_syntax:maths-and-equations-with-latex}{{3.13}{16}{Maths and Equations with LaTeX\relax }{section.3.13}{}}
\@writefile{toc}{\contentsline {section}{\numberline {3.14}Auto-document your python code}{16}{section.3.14}}
\newlabel{rest_syntax:auto-document-your-python-code}{{3.14}{16}{Auto-document your python code\relax }{section.3.14}{}}
\newlabel{rest_syntax:module-test}{{3.14}{17}{Auto-document your python code\relax }{section*.3}{}}
\@writefile{toc}{\contentsline {section}{\numberline {3.15}Include Images}{17}{section.3.15}}
\newlabel{rest_syntax:include-images}{{3.15}{17}{Include Images\relax }{section.3.15}{}}
\@writefile{toc}{\contentsline {section}{\numberline {3.16}Include a Figure}{17}{section.3.16}}
\newlabel{rest_syntax:include-a-figure}{{3.16}{17}{Include a Figure\relax }{section.3.16}{}}
\@writefile{toc}{\contentsline {section}{\numberline {3.17}Topic directive}{17}{section.3.17}}
\newlabel{rest_syntax:topic-directive}{{3.17}{17}{Topic directive\relax }{section.3.17}{}}
\@writefile{lof}{\contentsline {figure}{\numberline {3.1}{\ignorespaces figure are like images but with a caption}}{18}{figure.3.1}}
\@writefile{toc}{\contentsline {section}{\numberline {3.18}Sidebar directive}{18}{section.3.18}}
\newlabel{rest_syntax:sidebar-directive}{{3.18}{18}{Sidebar directive\relax }{section.3.18}{}}
\@writefile{toc}{\contentsline {section}{\numberline {3.19}Other directives:: glossary, centered, index, download and field list}{18}{section.3.19}}
\newlabel{rest_syntax:other-directives-glossary-centered-index-download-and-field-list}{{3.19}{18}{Other directives:: glossary, centered, index, download and field list\relax }{section.3.19}{}}
\@writefile{toc}{\contentsline {subsection}{\numberline {3.19.1}Field list}{18}{subsection.3.19.1}}
\newlabel{rest_syntax:field-list}{{3.19.1}{18}{Field list\relax }{subsection.3.19.1}{}}
\@writefile{toc}{\contentsline {subsection}{\numberline {3.19.2}glossary}{19}{subsection.3.19.2}}
\newlabel{rest_syntax:glossary}{{3.19.2}{19}{glossary\relax }{subsection.3.19.2}{}}
\newlabel{rest_syntax:term-apical}{{3.19.2}{19}{glossary\relax }{section*.4}{}}
\@writefile{toc}{\contentsline {subsection}{\numberline {3.19.3}index}{19}{subsection.3.19.3}}
\newlabel{rest_syntax:index}{{3.19.3}{19}{index\relax }{subsection.3.19.3}{}}
\@writefile{toc}{\contentsline {subsection}{\numberline {3.19.4}download}{19}{subsection.3.19.4}}
\newlabel{rest_syntax:download}{{3.19.4}{19}{download\relax }{subsection.3.19.4}{}}
\@writefile{toc}{\contentsline {subsection}{\numberline {3.19.5}hlist directive}{19}{subsection.3.19.5}}
\newlabel{rest_syntax:hlist-directive}{{3.19.5}{19}{hlist directive\relax }{subsection.3.19.5}{}}
\newlabel{rest_syntax:directive-hlist}{{3.19.5}{19}{hlist directive\relax }{section*.5}{}}
\@writefile{toc}{\contentsline {section}{\numberline {3.20}Footnote}{20}{section.3.20}}
\newlabel{rest_syntax:footnote}{{3.20}{20}{Footnote\relax }{section.3.20}{}}
\@writefile{toc}{\contentsline {section}{\numberline {3.21}Citations}{20}{section.3.21}}
\newlabel{rest_syntax:citations}{{3.21}{20}{Citations\relax }{section.3.21}{}}
\@writefile{toc}{\contentsline {section}{\numberline {3.22}More about aliases}{20}{section.3.22}}
\newlabel{rest_syntax:more-about-aliases}{{3.22}{20}{More about aliases\relax }{section.3.22}{}}
\@writefile{toc}{\contentsline {section}{\numberline {3.23}Intersphinx}{20}{section.3.23}}
\newlabel{rest_syntax:intersphinx}{{3.23}{20}{Intersphinx\relax }{section.3.23}{}}
\@writefile{toc}{\contentsline {section}{\numberline {3.24}file-wide metadata}{21}{section.3.24}}
\newlabel{rest_syntax:file-wide-metadata}{{3.24}{21}{file-wide metadata\relax }{section.3.24}{}}
\@writefile{toc}{\contentsline {subsection}{\numberline {3.24.1}orphan}{21}{subsection.3.24.1}}
\newlabel{rest_syntax:orphan}{{3.24.1}{21}{orphan\relax }{subsection.3.24.1}{}}
\@writefile{toc}{\contentsline {section}{\numberline {3.25}metainformation}{21}{section.3.25}}
\newlabel{rest_syntax:metainformation}{{3.25}{21}{metainformation\relax }{section.3.25}{}}
\newlabel{rest_syntax:directive-sectionauthor}{{3.25}{21}{metainformation\relax }{section*.6}{}}
\@writefile{toc}{\contentsline {section}{\numberline {3.26}contents directives}{21}{section.3.26}}
\newlabel{rest_syntax:contents-directives}{{3.26}{21}{contents directives\relax }{section.3.26}{}}
\newlabel{rest_syntax:directive-contents}{{3.26}{21}{contents directives\relax }{section*.7}{}}
\@writefile{toc}{\contentsline {paragraph}{Bibliography}{21}{paragraph*.8}}
\@writefile{toc}{\contentsline {chapter}{\numberline {4}Monitoreo de proyectos}{23}{chapter.4}}
\@writefile{lof}{\addvspace {10\p@ }}
\@writefile{lot}{\addvspace {10\p@ }}
\newlabel{statusPage:statuspage}{{4}{23}{Monitoreo de proyectos\relax }{chapter.4}{}}
\newlabel{statusPage:monitoreo-de-proyectos}{{4}{23}{Monitoreo de proyectos\relax }{chapter.4}{}}
\newlabel{statusPage::doc}{{4}{23}{Monitoreo de proyectos\relax }{chapter.4}{}}
\@writefile{toc}{\contentsline {section}{\numberline {4.1}Yabe Forums}{23}{section.4.1}}
\newlabel{statusPage:yabe-forums}{{4.1}{23}{Yabe Forums\relax }{section.4.1}{}}
\@writefile{toc}{\contentsline {section}{\numberline {4.2}Cucupons}{23}{section.4.2}}
\newlabel{statusPage:cucupons}{{4.2}{23}{Cucupons\relax }{section.4.2}{}}
\@writefile{toc}{\contentsline {section}{\numberline {4.3}Boringa(AR)}{23}{section.4.3}}
\newlabel{statusPage:boringa-ar}{{4.3}{23}{Boringa(AR)\relax }{section.4.3}{}}
\@writefile{toc}{\contentsline {section}{\numberline {4.4}Boringa(BO)}{23}{section.4.4}}
\newlabel{statusPage:boringa-bo}{{4.4}{23}{Boringa(BO)\relax }{section.4.4}{}}
\@writefile{toc}{\contentsline {section}{\numberline {4.5}Boringa(UR)}{24}{section.4.5}}
\newlabel{statusPage:boringa-ur}{{4.5}{24}{Boringa(UR)\relax }{section.4.5}{}}
\@writefile{toc}{\contentsline {chapter}{\numberline {5}Indices and tables}{25}{chapter.5}}
\@writefile{lof}{\addvspace {10\p@ }}
\@writefile{lot}{\addvspace {10\p@ }}
\newlabel{index:indices-and-tables}{{5}{25}{Indices and tables\relax }{chapter.5}{}}
\bibcite{CIT2002}{CIT2002}
\bibcite{timoteo}{timoteo}
\@writefile{toc}{\contentsline {chapter}{Bibliography}{27}{chapter*.10}}
\newlabel{rest_syntax:cit2002}{{5}{27}{\bibname \relax }{section*.11}{}}
\newlabel{statusPage:timoteo}{{5}{27}{\bibname \relax }{section*.12}{}}
\@writefile{toc}{\contentsline {chapter}{Python Module Index}{29}{section*.13}}
