\BOOKMARK [0][-]{chapter.1}{Titulo}{}
\BOOKMARK [1][-]{section.1.1}{Subtitulo}{chapter.1}
\BOOKMARK [1][-]{section.1.2}{Listas}{chapter.1}
\BOOKMARK [1][-]{section.1.3}{Listas 2}{chapter.1}
\BOOKMARK [1][-]{section.1.4}{Tablas}{chapter.1}
\BOOKMARK [1][-]{section.1.5}{Enlaces}{chapter.1}
\BOOKMARK [0][-]{chapter.2}{Titulo 2}{}
\BOOKMARK [0][-]{chapter.3}{Restructured Text \(reST\) and Sphinx CheatSheet}{}
\BOOKMARK [1][-]{section.3.1}{Introduction}{chapter.3}
\BOOKMARK [1][-]{section.3.2}{Inline markup and special characters \(e.g., bold, italic, verbatim\)}{chapter.3}
\BOOKMARK [1][-]{section.3.3}{Headings}{chapter.3}
\BOOKMARK [1][-]{section.3.4}{Internal and External Links}{chapter.3}
\BOOKMARK [1][-]{section.3.5}{List and bullets}{chapter.3}
\BOOKMARK [1][-]{section.3.6}{Comments}{chapter.3}
\BOOKMARK [1][-]{section.3.7}{Directives}{chapter.3}
\BOOKMARK [1][-]{section.3.8}{Tables}{chapter.3}
\BOOKMARK [1][-]{section.3.9}{Include other RST files with the toctree directive}{chapter.3}
\BOOKMARK [1][-]{section.3.10}{Substitutions}{chapter.3}
\BOOKMARK [1][-]{section.3.11}{Colored boxes: note, seealso, todo and warnings}{chapter.3}
\BOOKMARK [1][-]{section.3.12}{Inserting code and Literal blocks}{chapter.3}
\BOOKMARK [1][-]{section.3.13}{Maths and Equations with LaTeX}{chapter.3}
\BOOKMARK [1][-]{section.3.14}{Auto-document your python code}{chapter.3}
\BOOKMARK [1][-]{section.3.15}{Include Images}{chapter.3}
\BOOKMARK [1][-]{section.3.16}{Include a Figure}{chapter.3}
\BOOKMARK [1][-]{section.3.17}{Topic directive}{chapter.3}
\BOOKMARK [1][-]{section.3.18}{Sidebar directive}{chapter.3}
\BOOKMARK [1][-]{section.3.19}{Other directives:: glossary, centered, index, download and field list}{chapter.3}
\BOOKMARK [1][-]{section.3.20}{Footnote}{chapter.3}
\BOOKMARK [1][-]{section.3.21}{Citations}{chapter.3}
\BOOKMARK [1][-]{section.3.22}{More about aliases}{chapter.3}
\BOOKMARK [1][-]{section.3.23}{Intersphinx}{chapter.3}
\BOOKMARK [1][-]{section.3.24}{file-wide metadata}{chapter.3}
\BOOKMARK [1][-]{section.3.25}{metainformation}{chapter.3}
\BOOKMARK [1][-]{section.3.26}{contents directives}{chapter.3}
\BOOKMARK [0][-]{chapter.4}{Monitoreo de proyectos}{}
\BOOKMARK [1][-]{section.4.1}{Yabe Forums}{chapter.4}
\BOOKMARK [1][-]{section.4.2}{Cucupons}{chapter.4}
\BOOKMARK [1][-]{section.4.3}{Boringa\(AR\)}{chapter.4}
\BOOKMARK [1][-]{section.4.4}{Boringa\(BO\)}{chapter.4}
\BOOKMARK [1][-]{section.4.5}{Boringa\(UR\)}{chapter.4}
\BOOKMARK [0][-]{chapter.5}{Indices and tables}{}
\BOOKMARK [0][-]{chapter*.10}{Bibliography}{}
\BOOKMARK [0][-]{section*.13}{Python Module Index}{}
