﻿Germany;Berlin;ALFKI;6;12;eventual
Mexico;México D.F.;ANATR;4;10;eventual
Mexico;México D.F.;ANTON;7;17;eventual
UK;London;AROUT;13;30;frequent
Sweden;Luleå;BERGS;18;52;frequent
Germany;Mannheim;BLAUS;7;14;eventual
France;Strasbourg;BLONP;11;26;frequent
Spain;Madrid;BOLID;3;6;eventual
France;Marseille;BONAP;17;44;frequent
Canada;Tsawassen;BOTTM;14;35;frequent
UK;London;BSBEV;10;22;frequent
Argentina;Buenos Aires;CACTU;6;11;eventual
Mexico;México D.F.;CENTC;1;2;eventual
Switzerland;Bern;CHOPS;8;22;eventual
Brazil;Sao Paulo;COMMI;5;10;eventual
UK;London;CONSH;3;7;eventual
Germany;Aachen;DRACD;6;10;eventual
France;Nantes;DUMON;4;9;eventual
UK;London;EASTC;8;21;eventual
Austria;Graz;ERNSH;30;102;loyal
Brazil;Sao Paulo;FAMIA;7;19;eventual
France;Lille;FOLIG;5;16;eventual
Sweden;Bräcke;FOLKO;19;45;frequent
Germany;München;FRANK;15;48;frequent
France;Nantes;FRANR;3;6;eventual
Italy;Torino;FRANS;6;10;eventual
Portugal;Lisboa;FURIB;8;20;eventual
Spain;Barcelona;GALED;5;8;eventual
Spain;Sevilla;GODOS;10;26;frequent
Brazil;Campinas;GOURL;9;19;eventual
USA;Eugene;GREAL;11;22;frequent
Venezuela;Caracas;GROSR;2;4;eventual
Brazil;Rio de Janeiro;HANAR;14;32;frequent
Venezuela;San Cristóbal;HILAA;18;45;frequent
USA;Elgin;HUNGC;5;9;eventual
Ireland;Cork;HUNGO;19;55;frequent
UK;Cowes;ISLAT;10;23;frequent
Germany;Brandenburg;KOENE;14;39;frequent
France;Versailles;LACOR;4;11;eventual
France;Toulouse;LAMAI;14;31;frequent
Canada;Vancouver;LAUGB;3;8;eventual
USA;Walla Walla;LAZYK;2;2;eventual
Germany;Frankfurt a.M.;LEHMS;15;39;frequent
USA;San Francisco;LETSS;4;10;eventual
Venezuela;Barquisimeto;LILAS;14;34;frequent
Venezuela;I. de Margarita;LINOD;12;35;frequent
USA;Portland;LONEP;8;14;eventual
Italy;Bergamo;MAGAA;10;21;frequent
Belgium;Bruxelles;MAISD;7;17;eventual
Canada;Montréal;MEREP;13;32;frequent
Germany;Leipzig;MORGK;5;11;eventual
UK;London;NORTS;3;6;eventual
Argentina;Buenos Aires;OCEAN;5;11;eventual
USA;Anchorage;OLDWO;10;24;frequent
Germany;Köln;OTTIK;10;29;frequent
Mexico;México D.F.;PERIC;6;14;eventual
Austria;Salzburg;PICCO;10;23;frequent
Portugal;Lisboa;PRINI;5;10;eventual
Brazil;Rio de Janeiro;QUEDE;9;24;eventual
Brazil;Sao Paulo;QUEEN;13;40;frequent
Germany;Cunewalde;QUICK;28;86;loyal
Argentina;Buenos Aires;RANCH;5;12;eventual
USA;Albuquerque;RATTC;18;71;frequent
Italy;Reggio Emilia;REGGC;12;22;frequent
Brazil;Rio de Janeiro;RICAR;11;27;frequent
Switzerland;Genève;RICSU;10;30;frequent
Spain;Madrid;ROMEY;5;14;eventual
Norway;Stavern;SANTG;6;16;eventual
USA;Boise;SAVEA;31;116;loyal
UK;London;SEVES;9;26;eventual
Denmark;Kobenhavn;SIMOB;7;15;eventual
France;Paris;SPECD;4;6;eventual
USA;Lander;SPLIR;9;20;eventual
Belgium;Charleroi;SUPRD;12;39;frequent
USA;Portland;THEBI;4;7;eventual
USA;Butte;THECR;3;8;eventual
Germany;Münster;TOMSP;6;14;eventual
Mexico;México D.F.;TORTU;10;29;frequent
Brazil;Sao Paulo;TRADH;6;13;eventual
USA;Kirkland;TRAIH;3;9;eventual
Denmark;Århus;VAFFE;11;31;frequent
France;Lyon;VICTE;10;25;frequent
France;Reims;VINET;5;10;eventual
Germany;Stuttgart;WANDK;10;26;frequent
Finland;Oulu;WARTH;15;37;frequent
Brazil;Resende;WELLI;9;19;eventual
USA;Seattle;WHITC;14;40;frequent
Finland;Helsinki;WILMK;7;17;eventual
Poland;Warszawa;WOLZA;7;16;eventual
