15-12-2011 20:10:48.958  ERROR   [loggerClient] Something bad happened with the database connection during the last transaction
 15-12-2011 20:10:49.183  ERROR   [loggerClient] Something bad happened with the database connection during the last transaction
 15-12-2011 20:10:49.359  ERROR   [loggerClient] Something bad happened with the database connection during the last transaction
 15-12-2011 20:11:02.407  INFO  Pattern changed : %d{dd-MM-yyyy HH:mm:ss.SS } %p  %m%n 
 15-12-2011 20:11:03.566  ERROR   [loggerClient] Something bad happened with the database connection during the last transaction
 15-12-2011 20:11:03.775  ERROR   [loggerClient] Something bad happened with the database connection during the last transaction
 15-12-2011 20:11:03.919  ERROR   [loggerClient] Something bad happened with the database connection during the last transaction
 15-12-2011 20:11:04.71  ERROR   [loggerClient] Something bad happened with the database connection during the last transaction
 15-12-2011 20:11:04.231  ERROR   [loggerClient] Something bad happened with the database connection during the last transaction
 