15-12-2011 20:10:48.30  ERROR   [loggerClient] Something bad happened with the database connection during the last transaction
 15-12-2011 20:10:48.358  ERROR   [loggerClient] Something bad happened with the database connection during the last transaction
 15-12-2011 20:10:48.518  ERROR   [loggerClient] Something bad happened with the database connection during the last transaction
 15-12-2011 20:10:48.703  ERROR   [loggerClient] Something bad happened with the database connection during the last transaction
 