15-12-2011 20:11:04.367  ERROR   [loggerClient] Something bad happened with the database connection during the last transaction
 15-12-2011 20:11:04.511  ERROR   [loggerClient] Something bad happened with the database connection during the last transaction
 15-12-2011 20:11:04.654  ERROR   [loggerClient] Something bad happened with the database connection during the last transaction
 15-12-2011 20:11:04.783  ERROR   [loggerClient] Something bad happened with the database connection during the last transaction
 15-12-2011 20:11:04.943  ERROR   [loggerClient] Something bad happened with the database connection during the last transaction
 15-12-2011 20:11:05.126  ERROR   [loggerClient] Something bad happened with the database connection during the last transaction
 15-12-2011 20:11:13.455  WARN   [loggerClient] Something bad happened with the database connection during the last transaction
 15-12-2011 20:11:27.866  INFO   [webClient] too much work and no fun make Homer a dull boy. 
too much work and no fun make Homer a dull boy. 
too much work and no fun make Homer a dull boy. 
too much work and no fun make Homer a dull boy. 
 