15-12-2011 20:10:30.558  ERROR   [loggerClient] Something bad happened with the database connection during the last transaction
 15-12-2011 20:10:30.727  ERROR   [loggerClient] Something bad happened with the database connection during the last transaction
 15-12-2011 20:10:45.702  INFO  Pattern changed : %d{dd-MM-yyyy HH:mm:ss.SS } %p  %m%n 
 15-12-2011 20:10:47.06  ERROR   [loggerClient] Something bad happened with the database connection during the last transaction
 15-12-2011 20:10:47.223  ERROR   [loggerClient] Something bad happened with the database connection during the last transaction
 