15-12-2011 20:10:47.367  ERROR   [loggerClient] Something bad happened with the database connection during the last transaction
 15-12-2011 20:10:47.534  ERROR   [loggerClient] Something bad happened with the database connection during the last transaction
 15-12-2011 20:10:47.686  ERROR   [loggerClient] Something bad happened with the database connection during the last transaction
 15-12-2011 20:10:47.855  ERROR   [loggerClient] Something bad happened with the database connection during the last transaction
 