\relax 
\catcode`"\active
\catcode`<\active
\catcode`>\active
\@nameuse{es@quoting}
\ifx\hyper@anchor\@undefined
\global \let \oldcontentsline\contentsline
\gdef \contentsline#1#2#3#4{\oldcontentsline{#1}{#2}{#3}}
\global \let \oldnewlabel\newlabel
\gdef \newlabel#1#2{\newlabelxx{#1}#2}
\gdef \newlabelxx#1#2#3#4#5#6{\oldnewlabel{#1}{{#2}{#3}}}
\AtEndDocument{\let \contentsline\oldcontentsline
\let \newlabel\oldnewlabel}
\else
\global \let \hyper@last\relax 
\fi

\select@language{spanish}
\@writefile{toc}{\select@language{spanish}}
\@writefile{lof}{\select@language{spanish}}
\@writefile{lot}{\select@language{spanish}}
\@writefile{toc}{\contentsline {section}{\numberline {1}Introducci\'on}{\thepage }{section.1}}
\@writefile{lof}{\contentsline {figure}{\numberline {1}{\ignorespaces Logo OpenAtrium}}{\thepage }{figure.1}}
\@writefile{toc}{\contentsline {section}{\numberline {2}Caracter\'isticas}{\thepage }{section.2}}
\@writefile{toc}{\contentsline {section}{\numberline {3}Administraci\'on de proyectos}{\thepage }{section.3}}
\citation{oa1}
\@writefile{lof}{\contentsline {figure}{\numberline {2}{\ignorespaces Lista de caracter\'isticas}}{\thepage }{figure.2}}
\@writefile{lof}{\contentsline {figure}{\numberline {3}{\ignorespaces Resumen del proyecto}}{\thepage }{figure.3}}
\@writefile{lof}{\contentsline {figure}{\numberline {4}{\ignorespaces Lista de tareas}}{\thepage }{figure.4}}
\@writefile{toc}{\contentsline {subsection}{\numberline {3.1}Revisiones e historial}{\thepage }{subsection.3.1}}
\@writefile{toc}{\contentsline {section}{\numberline {4}Calendario y eventos}{\thepage }{section.4}}
\bibstyle{abbrv}
\bibcite{oa0}{1}
\@writefile{lof}{\contentsline {figure}{\numberline {5}{\ignorespaces Historial de revisiones}}{\thepage }{figure.5}}
\@writefile{lof}{\contentsline {figure}{\numberline {6}{\ignorespaces Calendario y eventos}}{\thepage }{figure.6}}
\@writefile{toc}{\contentsline {section}{\numberline {5}Complementos y extensiones}{\thepage }{section.5}}
\@writefile{lof}{\contentsline {figure}{\numberline {7}{\ignorespaces Extensiones}}{\thepage }{figure.7}}
\@writefile{toc}{\contentsline {section}{\numberline {6}An\'alisis}{\thepage }{section.6}}
\@writefile{toc}{\contentsline {subsection}{\numberline {6.1}Ventajas}{\thepage }{subsection.6.1}}
\@writefile{toc}{\contentsline {subsection}{\numberline {6.2}Desventajas}{\thepage }{subsection.6.2}}
\@writefile{toc}{\contentsline {section}{\numberline {7}Conclusiones}{\thepage }{section.7}}
\bibcite{oa1}{2}
\@writefile{toc}{\contentsline {section}{\numberline {8}References}{\thepage }{section.8}}
