\BOOKMARK [1][-]{section.1}{Introducci\363n}{}
\BOOKMARK [1][-]{section.2}{Caracter\355sticas}{}
\BOOKMARK [1][-]{section.3}{Administraci\363n de proyectos}{}
\BOOKMARK [2][-]{subsection.3.1}{Revisiones e historial}{section.3}
\BOOKMARK [1][-]{section.4}{Calendario y eventos}{}
\BOOKMARK [1][-]{section.5}{Complementos y extensiones}{}
\BOOKMARK [1][-]{section.6}{An\341lisis}{}
\BOOKMARK [2][-]{subsection.6.1}{Ventajas}{section.6}
\BOOKMARK [2][-]{subsection.6.2}{Desventajas}{section.6}
\BOOKMARK [1][-]{section.7}{Conclusiones}{}
\BOOKMARK [1][-]{section.8}{References}{}
