\relax 
\catcode`"\active
\catcode`<\active
\catcode`>\active
\@nameuse{es@quoting}
\ifx\hyper@anchor\@undefined
\global \let \oldcontentsline\contentsline
\gdef \contentsline#1#2#3#4{\oldcontentsline{#1}{#2}{#3}}
\global \let \oldnewlabel\newlabel
\gdef \newlabel#1#2{\newlabelxx{#1}#2}
\gdef \newlabelxx#1#2#3#4#5#6{\oldnewlabel{#1}{{#2}{#3}}}
\AtEndDocument{\let \contentsline\oldcontentsline
\let \newlabel\oldnewlabel}
\else
\global \let \hyper@last\relax 
\fi

\select@language{spanish}
\@writefile{toc}{\select@language{spanish}}
\@writefile{lof}{\select@language{spanish}}
\@writefile{lot}{\select@language{spanish}}
\@writefile{toc}{\contentsline {section}{\numberline {1}Introducci\'on}{\thepage }{section.1}}
\@writefile{lof}{\contentsline {figure}{\numberline {1}{\ignorespaces Logo Codendi}}{\thepage }{figure.1}}
\@writefile{toc}{\contentsline {section}{\numberline {2}Caracter\'isticas}{\thepage }{section.2}}
\@writefile{toc}{\contentsline {section}{\numberline {3}Administraci\'on de proyectos}{\thepage }{section.3}}
\@writefile{lof}{\contentsline {figure}{\numberline {2}{\ignorespaces Resumen del proyecto}}{\thepage }{figure.2}}
\@writefile{lof}{\contentsline {figure}{\numberline {3}{\ignorespaces Lista de tareas}}{\thepage }{figure.3}}
\@writefile{lof}{\contentsline {figure}{\numberline {4}{\ignorespaces Estados tareas}}{\thepage }{figure.4}}
\@writefile{toc}{\contentsline {subsection}{\numberline {3.1}Seguimiento y monitoreo}{\thepage }{subsection.3.1}}
\@writefile{toc}{\contentsline {section}{\numberline {4}Lanzamientos y entregas}{\thepage }{section.4}}
\citation{codendi0}
\@writefile{lof}{\contentsline {figure}{\numberline {5}{\ignorespaces Panel de reportes}}{\thepage }{figure.5}}
\@writefile{lof}{\contentsline {figure}{\numberline {6}{\ignorespaces Roadmap}}{\thepage }{figure.6}}
\@writefile{toc}{\contentsline {section}{\numberline {5}Control de versiones e integraci\'on cont\'inua}{\thepage }{section.5}}
\@writefile{toc}{\contentsline {section}{\numberline {6}Administraci\'on de documentos}{\thepage }{section.6}}
\@writefile{toc}{\contentsline {section}{\numberline {7}Gestor de incidencias}{\thepage }{section.7}}
\@writefile{toc}{\contentsline {section}{\numberline {8}Recursos, reservas y costos}{\thepage }{section.8}}
\@writefile{toc}{\contentsline {section}{\numberline {9}Servicios adicionales}{\thepage }{section.9}}
\bibstyle{abbrv}
\bibcite{codendi0}{1}
\@writefile{toc}{\contentsline {section}{\numberline {10}An\'alisis}{\thepage }{section.10}}
\@writefile{toc}{\contentsline {subsection}{\numberline {10.1}Ventajas}{\thepage }{subsection.10.1}}
\@writefile{toc}{\contentsline {subsection}{\numberline {10.2}Desventajas}{\thepage }{subsection.10.2}}
\@writefile{toc}{\contentsline {section}{\numberline {11}Conclusiones}{\thepage }{section.11}}
\@writefile{toc}{\contentsline {section}{\numberline {12}References}{\thepage }{section.12}}
